
build-pc-x86-64-test/lk.elf:     file format elf64-x86-64
build-pc-x86-64-test/lk.elf
architecture: i386:x86-64, flags 0x00000112:
EXEC_P, HAS_SYMS, D_PAGED
start address 0xffffffff80200000

Program Header:
    LOAD off    0x0000000000001000 vaddr 0xffffffff80200000 paddr 0x0000000000200000 align 2**12
         filesz 0x0000000000031290 memsz 0x0000000000031290 flags r-x
    LOAD off    0x0000000000033000 vaddr 0xffffffff80232000 paddr 0x0000000000232000 align 2**12
         filesz 0x0000000000001638 memsz 0x0000000000048fd0 flags rw-

Sections:
Idx Name          Size      VMA               LMA               File off  Algn
  0 .text         000232d4  ffffffff80200000  0000000000200000  00001000  2**4
                  CONTENTS, ALLOC, LOAD, READONLY, CODE
  1 .rodata       0000cfd0  ffffffff80224000  0000000000224000  00025000  2**12
                  CONTENTS, ALLOC, LOAD, READONLY, DATA
  2 drivers       00000020  ffffffff80230fd0  0000000000230fd0  00031fd0  2**3
                  CONTENTS, ALLOC, LOAD, READONLY, DATA
  3 commands      000001e0  ffffffff80230ff0  0000000000230ff0  00031ff0  2**3
                  CONTENTS, ALLOC, LOAD, READONLY, DATA
  4 apps          00000078  ffffffff802311d0  00000000002311d0  000321d0  2**3
                  CONTENTS, ALLOC, LOAD, READONLY, DATA
  5 lk_init       00000048  ffffffff80231248  0000000000231248  00032248  2**3
                  CONTENTS, ALLOC, LOAD, READONLY, DATA
  6 .data         00001560  ffffffff80232000  0000000000232000  00033000  2**12
                  CONTENTS, ALLOC, LOAD, DATA
  7 devices       000000c0  ffffffff80233560  0000000000233560  00034560  2**3
                  CONTENTS, ALLOC, LOAD, DATA
  8 .ctors        00000018  ffffffff80233620  0000000000233620  00034620  2**3
                  CONTENTS, ALLOC, LOAD, DATA
  9 .bss          00046fd0  ffffffff80234000  0000000000234000  00034638  2**12
                  ALLOC
 10 .debug_aranges 00001a40  0000000000000000  0000000000000000  00034640  2**4
                  CONTENTS, READONLY, DEBUGGING, OCTETS
 11 .debug_info   00064a91  0000000000000000  0000000000000000  00036080  2**0
                  CONTENTS, READONLY, DEBUGGING, OCTETS
 12 .debug_abbrev 000102a4  0000000000000000  0000000000000000  0009ab11  2**0
                  CONTENTS, READONLY, DEBUGGING, OCTETS
 13 .debug_line   0002a96d  0000000000000000  0000000000000000  000aadb5  2**0
                  CONTENTS, READONLY, DEBUGGING, OCTETS
 14 .debug_str    000077ba  0000000000000000  0000000000000000  000d5722  2**0
                  CONTENTS, READONLY, DEBUGGING, OCTETS
 15 .debug_loc    000802ef  0000000000000000  0000000000000000  000dcedc  2**0
                  CONTENTS, READONLY, DEBUGGING, OCTETS
 16 .debug_ranges 00017f70  0000000000000000  0000000000000000  0015d1cb  2**0
                  CONTENTS, READONLY, DEBUGGING, OCTETS
SYMBOL TABLE:
ffffffff80200000 l    d  .text	0000000000000000 .text
ffffffff80224000 l    d  .rodata	0000000000000000 .rodata
ffffffff80230fd0 l    d  drivers	0000000000000000 drivers
ffffffff80230ff0 l    d  commands	0000000000000000 commands
ffffffff802311d0 l    d  apps	0000000000000000 apps
ffffffff80231248 l    d  lk_init	0000000000000000 lk_init
ffffffff80232000 l    d  .data	0000000000000000 .data
ffffffff80233560 l    d  devices	0000000000000000 devices
ffffffff80233620 l    d  .ctors	0000000000000000 .ctors
ffffffff80234000 l    d  .bss	0000000000000000 .bss
0000000000000000 l    d  .debug_aranges	0000000000000000 .debug_aranges
0000000000000000 l    d  .debug_info	0000000000000000 .debug_info
0000000000000000 l    d  .debug_abbrev	0000000000000000 .debug_abbrev
0000000000000000 l    d  .debug_line	0000000000000000 .debug_line
0000000000000000 l    d  .debug_str	0000000000000000 .debug_str
0000000000000000 l    d  .debug_loc	0000000000000000 .debug_loc
0000000000000000 l    d  .debug_ranges	0000000000000000 .debug_ranges
0000000000000000 l    df *ABS*	0000000000000000 mmu.c
ffffffff802026d0 l     F .text	000000000000015e x86_mmu_unmap_entry
ffffffff802249a0 l     O .rodata	0000000000000018 __PRETTY_FUNCTION__.0
0000000000000000 l    df *ABS*	0000000000000000 arch.c
ffffffff8027a020 l     O .bss	0000000000000068 system_tss
ffffffff802249e0 l     O .rodata	0000000000000010 __PRETTY_FUNCTION__.1
ffffffff802249c0 l     O .rodata	0000000000000012 __PRETTY_FUNCTION__.0
0000000000000000 l    df *ABS*	0000000000000000 cache.c
0000000000000000 l    df *ABS*	0000000000000000 thread.c
ffffffff80203620 l     F .text	000000000000002b initial_thread_func
0000000000000000 l    df *ABS*	0000000000000000 faults.c
ffffffff80203740 l     F .text	0000000000000104 exception_die
ffffffff80224a60 l     O .rodata	0000000000000016 __PRETTY_FUNCTION__.0
0000000000000000 l    df *ABS*	0000000000000000 descriptor.c
0000000000000000 l    df *ABS*	0000000000000000 fpu.c
ffffffff8027a298 l     O .bss	0000000000000004 fp_supported
ffffffff8027a290 l     O .bss	0000000000000008 fp_owner
ffffffff8027a090 l     O .bss	0000000000000200 fpu_init_states
0000000000000000 l    df *ABS*	0000000000000000 build-pc-x86-64-test/arch/x86/64/start.S.o
ffffffff80200028 l       .text	0000000000000000 real_start
ffffffff80200008 l     O .text	0000000000000000 multiboot_header
ffffffff80200059 l       .text	0000000000000000 bss_setup
ffffffff80200073 l       .text	0000000000000000 paging_setup
ffffffff80200140 l       .text	0000000000000000 farjump64
ffffffff80200149 l       .text	0000000000000000 highaddr
0000000000000000 l    df *ABS*	0000000000000000 build-pc-x86-64-test/arch/x86/64/exceptions.S.o
ffffffff80203be0 l       .text	0000000000000000 _isr
0000000000000100 l       *ABS*	0000000000000000 i
ffffffff80204bd0 l       .text	0000000000000000 isr_stub_start
ffffffff80204ce0 l       .text	0000000000000000 interrupt_common
0000000000000010 l       *ABS*	0000000000000000 isr_stub_len
0000000000000000 l    df *ABS*	0000000000000000 build-pc-x86-64-test/arch/x86/gdt.S.o
0000000000000008 l       *ABS*	0000000000000000 codesel_32
ffffffff802331c8 l       .data	0000000000000000 _code_32_gde
0000000000000010 l       *ABS*	0000000000000000 datasel
ffffffff802331d0 l       .data	0000000000000000 _data_gde
0000000000000018 l       *ABS*	0000000000000000 user_codesel_32
ffffffff802331d8 l       .data	0000000000000000 _user_code_32_gde
0000000000000020 l       *ABS*	0000000000000000 user_datasel
ffffffff802331e0 l       .data	0000000000000000 _user_data_32_gde
0000000000000028 l       *ABS*	0000000000000000 codesel_64
ffffffff802331e8 l       .data	0000000000000000 _code_64_gde
0000000000000030 l       *ABS*	0000000000000000 datasel_64
ffffffff802331f0 l       .data	0000000000000000 _data_64_gde
0000000000000038 l       *ABS*	0000000000000000 user_codesel_64
ffffffff802331f8 l       .data	0000000000000000 _user_code_64_gde
0000000000000040 l       *ABS*	0000000000000000 user_datasel_64
ffffffff80233200 l       .data	0000000000000000 _user_data_64_gde
0000000000000048 l       *ABS*	0000000000000000 tsssel
ffffffff80233208 l       .data	0000000000000000 _tss_gde
0000000000000002 l       *ABS*	0000000000000000 i
0000000000000000 l    df *ABS*	0000000000000000 config.c
ffffffff80224000 l     O .rodata	0000000000000004 pci_ide1_config
ffffffff80224004 l     O .rodata	0000000000000004 pci_ide0_config
ffffffff80224008 l     O .rodata	0000000000000004 ide1_config
ffffffff8022400c l     O .rodata	0000000000000004 ide0_config
0000000000000000 l    df *ABS*	0000000000000000 interrupts.c
ffffffff802001c0 l     F .text	00000000000000cc enable
ffffffff80234000 l     O .bss	0000000000000002 irqMask
ffffffff80234020 l     O .bss	0000000000000310 int_handler_table
0000000000000000 l    df *ABS*	0000000000000000 platform.c
ffffffff802320d8 l     O .data	0000000000000008 mem_top
ffffffff80232000 l     O .data	0000000000000050 mem_arena
0000000000000000 l    df *ABS*	0000000000000000 timer.c
ffffffff80200670 l     F .text	0000000000000073 os_timer_tick
ffffffff80234360 l     O .bss	0000000000000008 t_callback
ffffffff80234330 l     O .bss	0000000000000008 timer_current_time
ffffffff80234338 l     O .bss	0000000000000008 timer_delta_time
ffffffff80234350 l     O .bss	0000000000000008 next_trigger_time
ffffffff80234348 l     O .bss	0000000000000008 next_trigger_delta
ffffffff80234358 l     O .bss	0000000000000008 callback_arg
ffffffff80234340 l     O .bss	0000000000000008 ticks_per_ms
0000000000000000 l    df *ABS*	0000000000000000 debug.c
ffffffff80200840 l     F .text	0000000000000053 uart_irq_handler
0000000000000000 l    df *ABS*	0000000000000000 console.c
ffffffff80234440 l     O .bss	0000000000000004 visual_page
ffffffff80234444 l     O .bss	0000000000000004 active_page
ffffffff802320e0 l     O .data	0000000000000010 view_window
ffffffff80234449 l     O .bss	0000000000000001 curr_x
ffffffff80234448 l     O .bss	0000000000000001 curr_y
ffffffff80234420 l     O .bss	0000000000000020 curs_x
ffffffff80234400 l     O .bss	0000000000000020 curs_y
ffffffff802343e4 l     O .bss	0000000000000002 x.2
ffffffff802343e2 l     O .bss	0000000000000002 y.1
ffffffff802343e0 l     O .bss	0000000000000002 scan_x.0
0000000000000000 l    df *ABS*	0000000000000000 keyboard.c
ffffffff80201400 l     F .text	00000000000000fc i8042_interrupt
ffffffff80234450 l     O .bss	0000000000000004 lastCode.0
ffffffff80234461 l     O .bss	0000000000000001 key_lshift
ffffffff80234460 l     O .bss	0000000000000001 key_rshift
ffffffff80224440 l     O .rodata	0000000000000200 KeyCodeSingleLower
ffffffff80234458 l     O .bss	0000000000000008 key_buf
ffffffff80224040 l     O .rodata	0000000000000200 KeyCodeSingleUpper
ffffffff80224240 l     O .rodata	0000000000000200 KeyCodeMultiUpper
ffffffff80224240 l     O .rodata	0000000000000200 KeyCodeMultiLower
0000000000000000 l    df *ABS*	0000000000000000 ide.c
ffffffff80201690 l     F .text	000000000000003a ide_irq_handler
ffffffff802016d0 l     F .text	0000000000000058 ide_get_block_count
ffffffff80201730 l     F .text	0000000000000058 ide_get_block_size
ffffffff80201790 l     F .text	000000000000005e ide_eval_error.isra.0
ffffffff802017f0 l     F .text	00000000000000a9 ide_poll_status
ffffffff802018a0 l     F .text	0000000000000193 ide_detect_ata.isra.0
ffffffff80201a40 l     F .text	0000000000000548 ide_init
ffffffff80224640 l     O .rodata	0000000000000008 ide_device_irqs
ffffffff80224660 l     O .rodata	0000000000000024 ide_device_regs
ffffffff802246a0 l     O .rodata	0000000000000038 ide_type_str
ffffffff80201f90 l     F .text	0000000000000209 ide_write
ffffffff802021a0 l     F .text	0000000000000209 ide_read
ffffffff80232100 l     O .data	0000000000000050 the_ops
0000000000000000 l    df *ABS*	0000000000000000 uart.c
ffffffff802023b0 l     F .text	00000000000000e4 uart_irq_handler
ffffffff802024a0 l     F .text	0000000000000101 uart_init
ffffffff802025b0 l     F .text	0000000000000078 uart_write_thread
ffffffff80202630 l     F .text	0000000000000050 uart_write
ffffffff80202680 l     F .text	0000000000000048 uart_read
ffffffff80232160 l     O .data	0000000000000038 the_ops
0000000000000000 l    df *ABS*	0000000000000000 init.c
0000000000000000 l    df *ABS*	0000000000000000 main.c
ffffffff80204ea0 l     F .text	00000000000000b8 bootstrap2
0000000000000000 l    df *ABS*	0000000000000000 app.c
ffffffff802050e0 l     F .text	000000000000000d app_thread_entry
ffffffff802050f0 l     F .text	000000000000008e start_app
ffffffff80205180 l     F .text	0000000000000093 cmd_start
ffffffff80205220 l     F .text	000000000000014a cmd_app
ffffffff80224e60 l     O .rodata	0000000000000040 _cmd_list
0000000000000000 l    df *ABS*	0000000000000000 shell.c
ffffffff80205490 l     F .text	0000000000000022 shell_entry
0000000000000000 l    df *ABS*	0000000000000000 string_tests.c
ffffffff802054c0 l     F .text	00000000000000ab c_memset
ffffffff80205570 l     F .text	00000000000001f1 c_memmove.part.0
ffffffff80205770 l     F .text	000000000000078b string_tests
ffffffff8027a2d8 l     O .bss	0000000000000008 src
ffffffff8027a2d0 l     O .bss	0000000000000008 dst
ffffffff8027a2c8 l     O .bss	0000000000000008 src2
ffffffff8027a2c0 l     O .bss	0000000000000008 dst2
ffffffff80224f80 l     O .rodata	0000000000000020 _cmd_list
0000000000000000 l    df *ABS*	0000000000000000 benchmarks.c
ffffffff80205f00 l     F .text	0000000000000079 bench_set_overhead
ffffffff80205f80 l     F .text	00000000000000e2 bench_cset_uint8_t
ffffffff80206070 l     F .text	00000000000000e5 bench_cset_uint16_t
ffffffff80206160 l     F .text	00000000000000e5 bench_cset_uint32_t
ffffffff80206250 l     F .text	00000000000000e6 bench_cset_uint64_t
ffffffff80206340 l     F .text	0000000000000110 bench_cset_wide
ffffffff80206450 l     F .text	00000000000000e6 bench_memset
ffffffff80206540 l     F .text	00000000000000e6 bench_memcpy
0000000000000000 l    df *ABS*	0000000000000000 cache_tests.c
0000000000000000 l    df *ABS*	0000000000000000 cbuf_tests.c
0000000000000000 l    df *ABS*	0000000000000000 clock_tests.c
0000000000000000 l    df *ABS*	0000000000000000 fibo.c
ffffffff80206e80 l     F .text	0000000000000154 fibo_thread
0000000000000000 l    df *ABS*	0000000000000000 float.c
ffffffff80207090 l     F .text	0000000000000199 float_thread
ffffffff80207230 l     F .text	00000000000000f9 float_tests
ffffffff80225280 l     O .rodata	0000000000000020 _cmd_list
0000000000000000 l    df *ABS*	0000000000000000 float_test_vec.c
0000000000000000 l    df *ABS*	0000000000000000 mem_tests.c
ffffffff80207330 l     F .text	00000000000000ad do_pattern_test
ffffffff802073e0 l     F .text	000000000000013b do_moving_inversion_test
ffffffff80207520 l     F .text	0000000000000206 do_mem_tests
ffffffff802252a0 l     O .rodata	0000000000000010 pat.0
ffffffff80207730 l     F .text	0000000000000140 mem_test
ffffffff802252c0 l     O .rodata	0000000000000020 _cmd_list
0000000000000000 l    df *ABS*	0000000000000000 printf_tests.c
ffffffff802252e0 l     O .rodata	0000000000000128 float_test_vec
0000000000000000 l    df *ABS*	0000000000000000 tests.c
ffffffff80207ef0 l     F .text	0000000000000001 tests_init
ffffffff80225420 l     O .rodata	0000000000000120 _cmd_list
0000000000000000 l    df *ABS*	0000000000000000 thread_tests.c
ffffffff80207f00 l     F .text	0000000000000002 spinner_thread
ffffffff80207f10 l     F .text	000000000000003d join_tester
ffffffff80207f50 l     F .text	0000000000000067 mutex_zerotimeout_thread
ffffffff80207fc0 l     F .text	0000000000000067 mutex_timeout_thread
ffffffff80208030 l     F .text	000000000000008a mutex_thread
ffffffff8027a2e0 l     O .bss	0000000000000004 shared.3
ffffffff802080c0 l     F .text	000000000000004e semaphore_producer
ffffffff8027a400 l     O .bss	0000000000000028 sem
ffffffff80208110 l     F .text	00000000000000cd semaphore_consumer
ffffffff8027a3c0 l     O .bss	0000000000000038 sem_test_mutex
ffffffff8027a3fc l     O .bss	0000000000000004 sem_remaining_its
ffffffff8027a3f8 l     O .bss	0000000000000004 sem_threads
ffffffff802081e0 l     F .text	0000000000000073 atomic_tester
ffffffff80225540 l     O .rodata	000000000000000e __PRETTY_FUNCTION__.0
ffffffff8027a2ec l     O .bss	0000000000000004 atomic
ffffffff8027a2e8 l     O .bss	0000000000000004 atomic_count
ffffffff80208260 l     F .text	0000000000000052 event_signaler
ffffffff8027a380 l     O .bss	0000000000000030 e
ffffffff802082c0 l     F .text	00000000000000ad context_switch_tester
ffffffff8027a340 l     O .bss	0000000000000030 context_switch_event
ffffffff8027a300 l     O .bss	0000000000000030 context_switch_done_event
ffffffff80208370 l     F .text	0000000000000030 preempt_tester
ffffffff8027a2e4 l     O .bss	0000000000000004 preempt_count
ffffffff802083a0 l     F .text	0000000000000223 join_tester_server
ffffffff802085d0 l     F .text	0000000000000097 event_waiter
ffffffff802332a0 l     O .data	0000000000000038 imutex.4
ffffffff80233260 l     O .data	0000000000000028 isem.2
ffffffff80233220 l     O .data	0000000000000030 ievent.1
0000000000000000 l    df *ABS*	0000000000000000 port_tests.c
ffffffff80209390 l     F .text	0000000000000155 ping_pong_thread
ffffffff802094f0 l     F .text	00000000000001c7 group_watcher_thread
0000000000000000 l    df *ABS*	0000000000000000 arch.c
0000000000000000 l    df *ABS*	0000000000000000 mmu.c
ffffffff8020a580 l     F .text	000000000000000c _register_arch_mmu_tests
ffffffff802332e0 l     O .data	0000000000000020 _arch_mmu_tests_element
ffffffff8020a590 l     F .text	0000000000000224 map_region_query_result.constprop.0
ffffffff80227030 l     O .rodata	0000000000000018 __PRETTY_FUNCTION__.1
ffffffff80227060 l     O .rodata	000000000000000f __PRETTY_FUNCTION__.3
ffffffff80227070 l     O .rodata	0000000000000013 __PRETTY_FUNCTION__.4
ffffffff80227020 l     O .rodata	000000000000000f __PRETTY_FUNCTION__.0
ffffffff80227050 l     O .rodata	0000000000000010 __PRETTY_FUNCTION__.2
0000000000000000 l    df *ABS*	0000000000000000 dev.c
0000000000000000 l    df *ABS*	0000000000000000 driver.c
ffffffff802275c0 l     O .rodata	0000000000000010 __PRETTY_FUNCTION__.1
ffffffff802275b0 l     O .rodata	0000000000000010 __PRETTY_FUNCTION__.0
0000000000000000 l    df *ABS*	0000000000000000 block_api.c
0000000000000000 l    df *ABS*	0000000000000000 i2c_api.c
0000000000000000 l    df *ABS*	0000000000000000 spi_api.c
0000000000000000 l    df *ABS*	0000000000000000 uart_api.c
0000000000000000 l    df *ABS*	0000000000000000 fb_api.c
0000000000000000 l    df *ABS*	0000000000000000 netif_api.c
0000000000000000 l    df *ABS*	0000000000000000 bios32.cpp
0000000000000000 l    df *ABS*	0000000000000000 debug.cpp
ffffffff8020baa0 l     F .text	0000000000000638 pci_cmd(int, console_cmd_args const*)
ffffffff80231068 l     O commands	0000000000000018 _cmd_block_pcitests
ffffffff802276a0 l     O .rodata	0000000000000020 _cmd_list
0000000000000000 l    df *ABS*	0000000000000000 ecam.cpp
0000000000000000 l    df *ABS*	0000000000000000 pci.cpp
ffffffff8027a428 l     O .bss	0000000000000008 (anonymous namespace)::pcib
ffffffff8027a430 l     O .bss	0000000000000008 (anonymous namespace)::lock
ffffffff8020cb80 l     F .text	000000000000001a _GLOBAL__sub_I_pci_get_last_bus
0000000000000000 l    df *ABS*	0000000000000000 type1.cpp
0000000000000000 l    df *ABS*	0000000000000000 debug.c
ffffffff8020cbc0 l     F .text	0000000000000144 threadload
ffffffff8027a488 l     O .bss	0000000000000008 last_idle_time.1
ffffffff8027a440 l     O .bss	0000000000000048 old_stats.0
ffffffff8020cd10 l     F .text	00000000000000dd cmd_threadstats
ffffffff8020cdf0 l     F .text	000000000000001b cmd_threads_panic
ffffffff8020ce10 l     F .text	000000000000001b cmd_threads
ffffffff8020ce30 l     F .text	0000000000000050 cmd_threadload
ffffffff8027a4d0 l     O .bss	0000000000000001 showthreadload.3
ffffffff8027a4a0 l     O .bss	0000000000000030 tltimer.2
ffffffff80227c40 l     O .rodata	0000000000000080 _cmd_list
0000000000000000 l    df *ABS*	0000000000000000 event.c
0000000000000000 l    df *ABS*	0000000000000000 init.c
0000000000000000 l    df *ABS*	0000000000000000 mutex.c
0000000000000000 l    df *ABS*	0000000000000000 thread.c
ffffffff8020d310 l     F .text	0000000000000118 insert_in_run_queue_head
ffffffff8027a860 l     O .bss	0000000000000200 run_queue
ffffffff8027a840 l     O .bss	0000000000000004 run_queue_bitmap
ffffffff8020d430 l     F .text	0000000000000088 thread_sleep_handler
ffffffff8020d4c0 l     F .text	0000000000000248 thread_resched
ffffffff8027a560 l     O .bss	00000000000002e0 _idle_thread
ffffffff8020d710 l     F .text	00000000000000e8 insert_in_run_queue_tail.constprop.0
ffffffff8027aa60 l     O .bss	0000000000000010 thread_list
ffffffff80227cc0 l     O .rodata	0000000000000030 CSWTCH.59
ffffffff8020eed0 l     F .text	0000000000000058 wait_queue_timeout_handler
0000000000000000 l    df *ABS*	0000000000000000 timer.c
ffffffff8020ef30 l     F .text	000000000000009c insert_timer_in_queue.constprop.0
ffffffff8027aaa0 l     O .bss	0000000000000020 timers
ffffffff8020efd0 l     F .text	0000000000000190 timer_tick
0000000000000000 l    df *ABS*	0000000000000000 semaphore.c
0000000000000000 l    df *ABS*	0000000000000000 mp.c
0000000000000000 l    df *ABS*	0000000000000000 port.c
ffffffff8027aac0 l     O .bss	0000000000000010 write_port_list
0000000000000000 l    df *ABS*	0000000000000000 acpi_lite.cpp
ffffffff802103b0 l     F .text	0000000000000086 validate_rsdp(acpi_rsdp const*)
0000000000000000 l    df *ABS*	0000000000000000 aes_core.c
ffffffff80228640 l     O .rodata	0000000000000050 rcon
ffffffff8022aea0 l     O .rodata	0000000000000800 Te4
ffffffff8022a6a0 l     O .rodata	0000000000000800 Td0
ffffffff80228ea0 l     O .rodata	0000000000000800 Td3
ffffffff80229ea0 l     O .rodata	0000000000000800 Td1
ffffffff802296a0 l     O .rodata	0000000000000800 Td2
ffffffff8022cea0 l     O .rodata	0000000000000800 Te0
ffffffff8022b6a0 l     O .rodata	0000000000000800 Te3
ffffffff8022c6a0 l     O .rodata	0000000000000800 Te1
ffffffff8022bea0 l     O .rodata	0000000000000800 Te2
ffffffff802286a0 l     O .rodata	0000000000000800 Td4
0000000000000000 l    df *ABS*	0000000000000000 aes_test.c
ffffffff802118c0 l     F .text	00000000000000d3 aes_bench
ffffffff8022d710 l     O .rodata	0000000000000010 key
ffffffff8022d720 l     O .rodata	0000000000000010 plaintext
ffffffff802119a0 l     F .text	0000000000000192 aes_command
ffffffff8022d6a0 l     O .rodata	000000000000000c __PRETTY_FUNCTION__.0
ffffffff8022d700 l     O .rodata	0000000000000010 expected_ciphertext
ffffffff8022d6c0 l     O .rodata	0000000000000040 _cmd_list
0000000000000000 l    df *ABS*	0000000000000000 bio.c
ffffffff80211b40 l     F .text	0000000000000008 bio_default_read_block
ffffffff80211b50 l     F .text	0000000000000084 bdev_dec_ref
ffffffff8022d8a0 l     O .rodata	000000000000000d __PRETTY_FUNCTION__.0
ffffffff80211be0 l     F .text	0000000000000008 bio_default_write_block
ffffffff80233300 l     O .data	0000000000000048 bdevs
ffffffff80211e40 l     F .text	0000000000000254 bio_default_read
ffffffff80212130 l     F .text	00000000000000a6 bio_default_erase
ffffffff80212260 l     F .text	00000000000002a8 bio_default_write
0000000000000000 l    df *ABS*	0000000000000000 debug.c
ffffffff802128c0 l     F .text	0000000000000096 is_valid_block.constprop.0
ffffffff80212960 l     F .text	0000000000000c95 cmd_bio
ffffffff8022d8c0 l     O .rodata	0000000000000020 _cmd_list
0000000000000000 l    df *ABS*	0000000000000000 mem.c
ffffffff80213600 l     F .text	0000000000000030 mem_bdev_write_block
ffffffff80213630 l     F .text	0000000000000028 mem_bdev_write
ffffffff80213660 l     F .text	0000000000000033 mem_bdev_read_block
ffffffff802136a0 l     F .text	000000000000002e mem_bdev_read
0000000000000000 l    df *ABS*	0000000000000000 subdev.c
ffffffff80213760 l     F .text	0000000000000029 subdev_close
ffffffff80213790 l     F .text	000000000000001d subdev_erase
ffffffff802137b0 l     F .text	0000000000000012 subdev_write_block
ffffffff802137d0 l     F .text	000000000000001d subdev_write
ffffffff802137f0 l     F .text	0000000000000012 subdev_read_block
ffffffff80213810 l     F .text	000000000000001d subdev_read
0000000000000000 l    df *ABS*	0000000000000000 cbuf.c
0000000000000000 l    df *ABS*	0000000000000000 adler32.c
0000000000000000 l    df *ABS*	0000000000000000 crc16.c
0000000000000000 l    df *ABS*	0000000000000000 crc32.c
ffffffff80214890 l     F .text	00000000000001ee crc32_combine_
ffffffff8022e240 l     O .rodata	0000000000000800 crc_table
0000000000000000 l    df *ABS*	0000000000000000 debug.c
ffffffff80214be0 l     F .text	000000000000013b cmd_cksum_bench
ffffffff80214d20 l     F .text	0000000000000066 cmd_adler32
ffffffff80214d90 l     F .text	0000000000000066 cmd_crc16
ffffffff80214e00 l     F .text	0000000000000066 cmd_crc32
ffffffff8022ea40 l     O .rodata	0000000000000080 _cmd_list
0000000000000000 l    df *ABS*	0000000000000000 debugcommands.c
ffffffff80214e70 l     F .text	0000000000000045 cmd_sleep
ffffffff80214ec0 l     F .text	0000000000000104 cmd_memtest
ffffffff80214fd0 l     F .text	000000000000011b cmd_fill_mem
ffffffff802150f0 l     F .text	00000000000000c9 cmd_modify_mem
ffffffff802151c0 l     F .text	0000000000000061 cmd_stackstomp
ffffffff80215230 l     F .text	000000000000001d cmd_crash
ffffffff80215250 l     F .text	0000000000000378 cmd_display_mem
ffffffff8027ab08 l     O .bss	0000000000000008 len.1
ffffffff8027ab00 l     O .bss	0000000000000008 address.0
ffffffff802155d0 l     F .text	000000000000004d cmd_chain
ffffffff80215620 l     F .text	000000000000005e cmd_copy_mem
ffffffff8022ebc0 l     O .rodata	0000000000000200 _cmd_list
0000000000000000 l    df *ABS*	0000000000000000 unittest.c
ffffffff80215680 l     F .text	000000000000000c _register_unittest
ffffffff80233360 l     O .data	0000000000000020 _unittest_element
ffffffff80233380 l     O .data	0000000000000008 out_func_arg
ffffffff80233388 l     O .data	0000000000000008 out_func
0000000000000000 l    df *ABS*	0000000000000000 all_tests.c
ffffffff8027ab18 l     O .bss	0000000000000008 test_case_list
ffffffff8027ab10 l     O .bss	0000000000000008 failed_test_case_list
ffffffff80215a20 l     F .text	000000000000001e do_unittests
ffffffff8022f120 l     O .rodata	0000000000000040 _cmd_list
0000000000000000 l    df *ABS*	0000000000000000 version.c
ffffffff80215ac0 l     F .text	000000000000000d cmd_version
ffffffff8022f300 l     O .rodata	0000000000000020 _cmd_list
0000000000000000 l    df *ABS*	0000000000000000 debug.c
0000000000000000 l    df *ABS*	0000000000000000 init.c
0000000000000000 l    df *ABS*	0000000000000000 power.c
ffffffff80215b50 l     F .text	0000000000000013 cmd_poweroff
ffffffff80215b70 l     F .text	0000000000000013 cmd_reboot
ffffffff8022f3e0 l     O .rodata	0000000000000040 _cmd_list
0000000000000000 l    df *ABS*	0000000000000000 init.c
0000000000000000 l    df *ABS*	0000000000000000 bootalloc.c
0000000000000000 l    df *ABS*	0000000000000000 pmm.c
ffffffff80215bf0 l     F .text	00000000000000b4 pmm_alloc_pages.part.0
ffffffff802333e0 l     O .data	0000000000000038 lock
ffffffff80233420 l     O .data	0000000000000010 arena_list
ffffffff80215cb0 l     F .text	0000000000000165 pmm_alloc_range.part.0
ffffffff80215e20 l     F .text	0000000000000238 pmm_alloc_contiguous.part.0
ffffffff802164f0 l     F .text	00000000000005b2 cmd_pmm
ffffffff802333c0 l     O .data	0000000000000010 allocated.0
ffffffff8022f480 l     O .rodata	0000000000000020 _cmd_list
0000000000000000 l    df *ABS*	0000000000000000 vm.c
ffffffff80216bb0 l     F .text	0000000000000096 mark_pages_in_use
ffffffff80216c50 l     F .text	0000000000000049 vm_init_preheap
ffffffff80216ca0 l     F .text	0000000000000062 vm_init_postheap
ffffffff80216d80 l     F .text	0000000000000307 cmd_vm
ffffffff8022f4a0 l     O .rodata	0000000000000020 _cmd_list
0000000000000000 l    df *ABS*	0000000000000000 vmm.c
ffffffff80233480 l     O .data	0000000000000010 aspace_list
ffffffff80217210 l     F .text	00000000000003c8 alloc_region
ffffffff802186d8 l     F .text	0000000000000017 alloc_region.cold
ffffffff80233440 l     O .data	0000000000000038 vmm_lock
ffffffff80218120 l     F .text	000000000000050f cmd_vmm
ffffffff8027ab78 l     O .bss	0000000000000008 test_aspace.0
ffffffff8022f4c0 l     O .rodata	0000000000000020 _cmd_list
0000000000000000 l    df *ABS*	0000000000000000 console.c
ffffffff802186f0 l     F .text	000000000000006b cmd_test
ffffffff80218760 l     F .text	0000000000000098 cmd_help_impl
ffffffff80218800 l     F .text	000000000000000a cmd_help_panic
ffffffff80218810 l     F .text	000000000000000a cmd_help
ffffffff80218820 l     F .text	000000000000036c read_debug_line
ffffffff80218b90 l     F .text	0000000000000096 match_command
ffffffff80218c30 l     F .text	00000000000000d1 convert_args
ffffffff80218d10 l     F .text	000000000000008b fetch_next_line
ffffffff80218da0 l     F .text	00000000000005a6 command_loop
ffffffff8022fde0 l     O .rodata	000000000000000d __func__.0
ffffffff80219350 l     F .text	0000000000000044 cmd_echo
ffffffff802193a0 l     F .text	00000000000000a8 cmd_history
ffffffff802196f0 l     F .text	000000000000016b cmd_repeat
ffffffff8022fe00 l     O .rodata	00000000000000c0 _cmd_list
0000000000000000 l    df *ABS*	0000000000000000 debug.c
ffffffff80219a50 l     F .text	000000000000003f __panic_stdio_write
ffffffff80219a90 l     F .text	000000000000002f __panic_stdio_read
ffffffff802334a0 l     O .data	0000000000000008 panic_fd.2
ffffffff80230120 l     O .rodata	0000000000000010 panic_hooks.0
ffffffff80233490 l     O .data	0000000000000010 panic_io.1
0000000000000000 l    df *ABS*	0000000000000000 heap_wrapper.c
ffffffff80219f40 l     F .text	00000000000000b9 heap_free_delayed_list
ffffffff8021a000 l     F .text	0000000000000017 dump_callback.0
ffffffff8021a020 l     F .text	00000000000007b6 cmd_heap
ffffffff8027ab88 l     O .bss	0000000000000001 heap_trace
ffffffff802301a0 l     O .rodata	0000000000000020 _cmd_list
0000000000000000 l    df *ABS*	0000000000000000 page_alloc.c
ffffffff8021aac0 l     F .text	0000000000000081 cmd_page_alloc
ffffffff802301c0 l     O .rodata	0000000000000020 _cmd_list
0000000000000000 l    df *ABS*	0000000000000000 abort.c
0000000000000000 l    df *ABS*	0000000000000000 atexit.c
0000000000000000 l    df *ABS*	0000000000000000 atoi.c
0000000000000000 l    df *ABS*	0000000000000000 bsearch.c
0000000000000000 l    df *ABS*	0000000000000000 ctype.c
0000000000000000 l    df *ABS*	0000000000000000 errno.c
ffffffff8027ab90 l     O .bss	0000000000000004 _errno
0000000000000000 l    df *ABS*	0000000000000000 printf.c
ffffffff8021b2e0 l     F .text	0000000000000043 _vsnprintf_output
ffffffff8021b330 l     F .text	00000000000000be longlong_to_string
ffffffff8021b3f0 l     F .text	0000000000000099 exponent_to_string
ffffffff8021b490 l     F .text	0000000000000044 longlong_to_hexstring.constprop.0
ffffffff80230840 l     O .rodata	0000000000000010 hextable_caps
ffffffff80230850 l     O .rodata	0000000000000010 hextable
ffffffff8021b4e0 l     F .text	00000000000002f1 double_to_string.constprop.0
ffffffff8021b7e0 l     F .text	0000000000000356 double_to_hexstring.constprop.0
0000000000000000 l    df *ABS*	0000000000000000 rand.c
ffffffff802334c0 l     O .data	0000000000000004 randseed
0000000000000000 l    df *ABS*	0000000000000000 strtol.c
0000000000000000 l    df *ABS*	0000000000000000 strtoll.c
0000000000000000 l    df *ABS*	0000000000000000 stdio.c
0000000000000000 l    df *ABS*	0000000000000000 qsort.c
0000000000000000 l    df *ABS*	0000000000000000 eabi.c
0000000000000000 l    df *ABS*	0000000000000000 bcopy.c
0000000000000000 l    df *ABS*	0000000000000000 bzero.c
0000000000000000 l    df *ABS*	0000000000000000 memchr.c
0000000000000000 l    df *ABS*	0000000000000000 memcmp.c
0000000000000000 l    df *ABS*	0000000000000000 memcpy.c
0000000000000000 l    df *ABS*	0000000000000000 memmove.c
0000000000000000 l    df *ABS*	0000000000000000 memset.c
0000000000000000 l    df *ABS*	0000000000000000 strcat.c
0000000000000000 l    df *ABS*	0000000000000000 strchr.c
0000000000000000 l    df *ABS*	0000000000000000 strcmp.c
0000000000000000 l    df *ABS*	0000000000000000 strcoll.c
0000000000000000 l    df *ABS*	0000000000000000 strcpy.c
0000000000000000 l    df *ABS*	0000000000000000 strdup.c
0000000000000000 l    df *ABS*	0000000000000000 strerror.c
0000000000000000 l    df *ABS*	0000000000000000 strlcat.c
0000000000000000 l    df *ABS*	0000000000000000 strlcpy.c
0000000000000000 l    df *ABS*	0000000000000000 strlen.c
0000000000000000 l    df *ABS*	0000000000000000 strncat.c
0000000000000000 l    df *ABS*	0000000000000000 strncpy.c
0000000000000000 l    df *ABS*	0000000000000000 strncmp.c
0000000000000000 l    df *ABS*	0000000000000000 strnicmp.c
0000000000000000 l    df *ABS*	0000000000000000 strnlen.c
0000000000000000 l    df *ABS*	0000000000000000 strpbrk.c
0000000000000000 l    df *ABS*	0000000000000000 strrchr.c
0000000000000000 l    df *ABS*	0000000000000000 strspn.c
0000000000000000 l    df *ABS*	0000000000000000 strstr.c
0000000000000000 l    df *ABS*	0000000000000000 strtok.c
ffffffff8027aba0 l     O .bss	0000000000000008 ___strtok
0000000000000000 l    df *ABS*	0000000000000000 strxfrm.c
0000000000000000 l    df *ABS*	0000000000000000 new.cpp
0000000000000000 l    df *ABS*	0000000000000000 pure_virtual.cpp
0000000000000000 l    df *ABS*	0000000000000000 dlmalloc.c
ffffffff8021e6f0 l     F .text	000000000000009e init_mparams.isra.0
ffffffff80233500 l     O .data	0000000000000038 malloc_global_mutex
ffffffff8027afa0 l     O .bss	0000000000000030 mparams
ffffffff8027abc0 l     O .bss	00000000000003e0 _gm_
ffffffff8021e790 l     F .text	0000000000000316 release_unused_segments.constprop.0
ffffffff8021eab0 l     F .text	00000000000001ee sys_trim.constprop.0
ffffffff802230f4 l     F .text	0000000000000009 sys_trim.constprop.0.cold
ffffffff8021eca0 l     F .text	0000000000000904 dispose_chunk.constprop.0
ffffffff8021f5b0 l     F .text	00000000000004e3 try_realloc_chunk.constprop.0.isra.0
ffffffff802230fd l     F .text	000000000000000a dlmalloc.cold
ffffffff802215b0 l     F .text	0000000000000315 ialloc.constprop.0
ffffffff802218d0 l     F .text	0000000000000280 internal_memalign.constprop.0
0000000000000000 l    df *ABS*	0000000000000000 console.c
ffffffff80223110 l     F .text	000000000000008d __debug_stdio_write
ffffffff80233550 l     O .data	0000000000000010 print_callbacks
ffffffff802231a0 l     F .text	0000000000000032 __debug_stdio_read
ffffffff80230f90 l     O .rodata	0000000000000010 console_io_hooks
0000000000000000 l    df *ABS*	0000000000000000 io.c
ffffffff802194f0 g     F .text	0000000000000057 console_create
ffffffff80210210 g     F .text	000000000000019d port_close
ffffffff80219550 g     F .text	0000000000000073 console_start
ffffffff8021ce70 g     F .text	0000000000000023 putchar
ffffffff80215810 g     F .text	000000000000007f expect_bytes_eq
ffffffff802039b0 g     F .text	00000000000000ce set_global_desc
ffffffff80206bd0 g     F .text	00000000000002a2 clock_tests
ffffffff802310e0 g     O commands	0000000000000018 _cmd_block_mem
ffffffff802140d0 g     F .text	00000000000000ff cbuf_read_char
ffffffff8020f5b0 g     F .text	0000000000000017 port_init
ffffffff802005a0 g     F .text	00000000000000cd platform_init
ffffffff8021e000 g     F .text	000000000000001c strcpy
ffffffff802310c8 g     O commands	0000000000000018 _cmd_block_crc
ffffffff80233620 g       devices	0000000000000000 .protected __stop_devices
ffffffff8020ecd0 g     F .text	0000000000000098 wait_queue_destroy
ffffffff8020ead0 g     F .text	0000000000000098 thread_detach
ffffffff80207870 g     F .text	000000000000060e printf_tests
ffffffff8020e450 g     F .text	0000000000000152 wait_queue_block
ffffffff8020ca30 g     F .text	0000000000000056 pci_type1::read_config_half(pci_location_t const*, unsigned int, unsigned short*)
ffffffff8020c690 g     F .text	0000000000000066 pci_write_config_half
ffffffff80213b80 g     F .text	0000000000000017 cbuf_space_used
ffffffff80203b30 g     F .text	0000000000000020 fpu_init_thread_states
ffffffff80200830 g     F .text	0000000000000008 platform_stop_timer
ffffffff8021d0a0 g     F .text	00000000000000a1 printf
ffffffff8021c660 g     F .text	000000000000005d vsprintf
ffffffff80200410 g     F .text	0000000000000019 local_apic_callback
ffffffff8020eba0 g     F .text	0000000000000125 thread_exit
ffffffff80222510 g     F .text	000000000000006d dlcalloc
ffffffff80203b80 g     F .text	0000000000000042 fpu_dev_na_handler
ffffffff8020cb40  w    F .text	0000000000000006 pci_backend::write_config_word(pci_location_t const*, unsigned int, unsigned int)
ffffffff80204d5b g     F .text	0000000000000000 arch_idle
ffffffff80212750 g     F .text	0000000000000078 bio_unregister_device
ffffffff80224a78 g     O .rodata	0000000000000000 _gdtr_phys
ffffffff80210440 g     F .text	000000000000003b acpi_get_table_at_index
ffffffff802162b0 g     F .text	0000000000000015 pmm_alloc_pages
ffffffff80231278 g     O lk_init	0000000000000018 _init_struct_vm_preheap
ffffffff8020cb30  w    F .text	0000000000000006 pci_backend::write_config_half(pci_location_t const*, unsigned int, unsigned short)
ffffffff8021e070 g     F .text	0000000000000015 strerror
ffffffff80210d70 g     F .text	0000000000000244 AES_set_decrypt_key
ffffffff80222c20 g     F .text	0000000000000008 dlmalloc_footprint
ffffffff8021dcb0 g     F .text	00000000000001ee memmove
ffffffff802321c0 g     O .data	0000000000000000 _idt
ffffffff8021c7b0 g     F .text	00000000000000e4 snprintf
ffffffff8020caf0  w    F .text	0000000000000006 pci_backend::read_config_byte(pci_location_t const*, unsigned int, unsigned char*)
ffffffff8020f550 g     F .text	000000000000005a sem_timedwait
ffffffff80235000 g     O .bss	0000000000040000 kernel_linear_map_pdp
ffffffff80213b50 g     F .text	0000000000000023 cbuf_space_avail
ffffffff802008a0 g     F .text	0000000000000047 platform_init_debug_early
ffffffff8021ac10 g     F .text	000000000000011b atol
ffffffff802331c0 g     O .data	0000000000000000 _gdt
ffffffff802126e0 g     F .text	0000000000000070 bio_register_device
ffffffff8020de50 g     F .text	0000000000000026 thread_timer_tick
ffffffff8020db30 g     F .text	00000000000000c8 thread_resume
ffffffff8020ff30 g     F .text	00000000000001b2 port_read
ffffffff80215bb0  w    F .text	0000000000000001 target_quiesce
ffffffff8021e650 g     F .text	0000000000000005 operator new(unsigned long)
ffffffff80231290 g       lk_init	0000000000000000 .protected __stop_lk_init
ffffffff80233590 g     O devices	0000000000000030 __device_ide_pci_ide0
ffffffff8020c810 g     F .text	000000000000006d pci_set_irq_hw_int
ffffffff8020cf90 g     F .text	0000000000000088 event_signal
ffffffff8021b170 g     F .text	0000000000000012 isblank
ffffffff8020eb70 g     F .text	000000000000002e thread_detach_and_resume
ffffffff80203a80 g     F .text	00000000000000a1 fpu_init
ffffffff8021b0d0 g     F .text	0000000000000093 bsearch
ffffffff8021ab50 g     F .text	0000000000000007 page_alloc
ffffffff802160d0 g     F .text	0000000000000054 paddr_to_vm_page
ffffffff80200ab0 g     F .text	0000000000000032 set_visual_page
ffffffff80219ca0 g     F .text	0000000000000159 hexdump
ffffffff80233620 g       .ctors	0000000000000000 __ctor_list
ffffffff8021ae40 g     F .text	00000000000000e3 atoull
ffffffff8020f320 g     F .text	000000000000008c timer_cancel
ffffffff80231188 g     O commands	0000000000000018 _cmd_block_console
ffffffff802162d0 g     F .text	0000000000000068 pmm_alloc_page
ffffffff80202a10 g     F .text	000000000000015e x86_mmu_check_mapping
ffffffff802175e0 g     F .text	000000000000014f vmm_reserve_space
ffffffff8021d170 g     F .text	0000000000000985 qsort
ffffffff80213d70 g     F .text	0000000000000165 cbuf_read
ffffffff80215690 g     F .text	00000000000000a1 unittest_printf
ffffffff8020e7b0 g     F .text	0000000000000158 wait_queue_wake_one
ffffffff802171f0 g     F .text	0000000000000001 vmm_init
ffffffff80214800 g     F .text	000000000000003f update_crc16
ffffffff80216490 g     F .text	000000000000005b pmm_alloc_kpages
ffffffff80232198 g     O .data	0000000000000008 uart_device_class
ffffffff802333a0 g     O .data	0000000000000008 boot_alloc_end
ffffffff802127d0 g     F .text	00000000000000f0 bio_dump_devices
ffffffff8021cf80 g     F .text	000000000000002b getc
ffffffff80200720 g     F .text	000000000000000c current_time
ffffffff80222c30 g     F .text	0000000000000008 dlmalloc_max_footprint
ffffffff8020d800 g     F .text	0000000000000210 thread_create_etc
ffffffff8021dbc0 g     F .text	00000000000000e3 memcpy
ffffffff80211d30 g     F .text	0000000000000088 bio_read
ffffffff80219450 g     F .text	0000000000000034 console_get_current
ffffffff802108b0 g     F .text	00000000000004b4 AES_set_encrypt_key
ffffffff80200290 g     F .text	0000000000000049 platform_init_interrupts
ffffffff8020c230 g     F .text	000000000000003b pci_ecam::~pci_ecam()
ffffffff80230ff0 g       commands	0000000000000000 .protected __start_commands
ffffffff80217110 g     F .text	0000000000000037 vaddr_to_aspace
ffffffff8020b6a0 g     F .text	000000000000003c class_i2c_read
ffffffff80207e80 g     F .text	0000000000000068 printf_tests_float
ffffffff80224a80 g     O .rodata	0000000000000000 _gdtr
ffffffff80231248 g       lk_init	0000000000000000 .protected __start_lk_init
ffffffff8021cea0 g     F .text	0000000000000050 puts
ffffffff80200bf0 g     F .text	0000000000000015 curr_save
ffffffff8021b1b0 g     F .text	000000000000000c islower
ffffffff802092e0 g     F .text	00000000000000a8 spinner
ffffffff8020f420 g     F .text	000000000000003f sem_destroy
ffffffff80231290 g       .data	0000000000000000 __rodata_end
ffffffff80231170 g     O commands	0000000000000018 _cmd_block_vmm
ffffffff80200450 g     F .text	000000000000001e int_source_override_callback
ffffffff8021b2b0 g     F .text	000000000000000f tolower
ffffffff8027ab80 g     O .bss	0000000000000008 delayed_free_lock
ffffffff80217d10 g     F .text	00000000000000f1 vmm_free_region
ffffffff802036c0 g     F .text	0000000000000041 arch_dump_thread
ffffffff80204d70 g     F .text	0000000000000130 lk_init_level
ffffffff8021b2d0 g     F .text	0000000000000008 __geterrno
ffffffff8021a820 g     F .text	0000000000000067 malloc
ffffffff80278000 g     O .bss	0000000000001000 kernel_pml4
ffffffff8020e060 g     F .text	000000000000001b thread_set_name
ffffffff80222c40 g     F .text	0000000000000016 dlmalloc_footprint_limit
ffffffff80225260 g     O .rodata	0000000000000004 ITER
ffffffff80210550 g     F .text	0000000000000204 acpi_lite_init
ffffffff80222b90 g     F .text	0000000000000085 dlmalloc_trim
ffffffff8021c5f0 g     F .text	0000000000000061 vsnprintf
ffffffff8021cb90 g     F .text	0000000000000282 strtoll
ffffffff80201270 g     F .text	000000000000004e puts_xy
ffffffff80202830 g     F .text	00000000000001d9 x86_mmu_get_mapping
ffffffff80277000 g     O .bss	0000000000001000 kernel_pdp
ffffffff8020f4c0 g     F .text	0000000000000053 sem_wait
ffffffff8020df60 g     F .text	00000000000000eb thread_init_early
ffffffff80223000 g     F .text	00000000000000b5 dlmallopt
ffffffff8020b240 g     F .text	000000000000007d device_init
ffffffff8021af30 g     F .text	0000000000000195 strtoul
ffffffff8027ab98 g     O .bss	0000000000000008 .hidden __dso_handle
ffffffff80231110 g     O commands	0000000000000018 _cmd_block_version
ffffffff8020f460 g     F .text	0000000000000054 sem_post
ffffffff8020cb50  w    F .text	000000000000002c SpinLock::~SpinLock()
ffffffff8020ca90 g     F .text	000000000000001e pci_type1::detect()
ffffffff8020cad0  w    F .text	0000000000000006 pci_backend::get_irq_routing_options(pci_backend::irq_routing_options_t*, unsigned short*)
ffffffff8021b280 g     F .text	000000000000002c ispunct
ffffffff8021ad40 g     F .text	00000000000000e3 atoul
ffffffff8020b5a0 g     F .text	0000000000000038 class_block_write
ffffffff80213b20 g     F .text	0000000000000029 cbuf_initialize
ffffffff8020b370 g     F .text	0000000000000054 device_fini
ffffffff80215ad0  w    F .text	0000000000000009 platform_pputc
ffffffff80203b50 g     F .text	000000000000002b fpu_context_switch
ffffffff80234380 g     O .bss	0000000000000050 console_input_buf
ffffffff8021c8b0 g     F .text	0000000000000028 rand_add_entropy
ffffffff8067afd0 g       .bss	0000000000000000 _end_of_ram
ffffffff8021b190 g     F .text	0000000000000016 isspace
ffffffff802100f0 g     F .text	0000000000000119 port_destroy
ffffffff8020cba0  w    F .text	0000000000000001 pci_type1::~pci_type1()
ffffffff80233560 g     O devices	0000000000000030 __device_ide_pci_ide1
ffffffff80206630 g     F .text	0000000000000030 benchmarks
ffffffff80216ab0 g     F .text	00000000000000d5 pmm_free_kpages
ffffffff8020e050 g     F .text	0000000000000001 thread_init
ffffffff80218670 g     F .text	0000000000000068 vmm_set_active_aspace
ffffffff80218630 g     F .text	000000000000003c vmm_context_switch
ffffffff8020b4d0 g     F .text	000000000000004e device_resume
ffffffff80203bc2 g     F .text	0000000000000000 x86_64_context_switch
ffffffff802335f0 g     O devices	0000000000000030 __device_ide_ide0
ffffffff8021ce20 g     F .text	0000000000000017 _fprintf_output_func
ffffffff80203610 g     F .text	0000000000000001 arch_sync_cache_range
ffffffff80219e00 g     F .text	000000000000013d hexdump8_ex
ffffffff8021e690 g     F .text	0000000000000005 operator delete(void*)
ffffffff80217ab0 g     F .text	0000000000000260 vmm_alloc
ffffffff80233560 g       devices	0000000000000000 .protected __start_devices
ffffffff8021e2e0  w    F .text	00000000000000c4 strncasecmp
ffffffff8027afd0 g       .bss	0000000000000000 __bss_end
ffffffff80200e70 g     F .text	000000000000012a _scroll
ffffffff80208670 g     F .text	0000000000000c66 thread_tests
ffffffff8021db40 g     F .text	000000000000000a bzero
ffffffff802158a0 g     F .text	0000000000000058 unittest_register_test_case
ffffffff8020f9e0 g     F .text	000000000000017d port_group
ffffffff8020e0e0 g     F .text	000000000000005f thread_become_idle
ffffffff8021abe0 g     F .text	0000000000000012 abort
ffffffff80203090 g     F .text	00000000000000b0 x86_mmu_unmap
ffffffff8020e400 g     F .text	000000000000002f dump_all_threads
ffffffff8020c900 g     F .text	0000000000000077 pci_init_ecam
ffffffff802194b0 g     F .text	000000000000003f console_abort_script
ffffffff80222820 g     F .text	000000000000004f dlvalloc
ffffffff8021b220 g     F .text	000000000000001c isxdigit
ffffffff8021abc0 g     F .text	0000000000000013 page_first_alloc
ffffffff80203850 g     F .text	000000000000015c x86_exception_handler
ffffffff8021c900 g     F .text	0000000000000282 strtol
ffffffff80200fd0 g     F .text	000000000000026b cputc
ffffffff8021e3b0 g     F .text	0000000000000032 strnlen
ffffffff80203650 g     F .text	0000000000000061 arch_thread_initialize
ffffffff802031e0 g     F .text	00000000000000f8 x86_mmu_map_range
ffffffff802334d0 g     O .data	0000000000000018 __stdio_FILEs
ffffffff80200b40 g     F .text	0000000000000007 get_visual_page
ffffffff80200470 g     F .text	0000000000000001 platform_init_mmu_mappings
ffffffff80200000 g       .text	0000000000000000 __code_start
ffffffff8020dd80 g     F .text	00000000000000c8 thread_unblock
ffffffff80230fd0 g     O drivers	0000000000000010 __driver_ide
ffffffff80233540 g     O .data	0000000000000010 console_io
ffffffff80213ba0 g     F .text	00000000000001c6 cbuf_write
ffffffff8021e440 g     F .text	000000000000002e strrchr
ffffffff8020c770 g     F .text	000000000000009d pci_get_irq_routing_options
ffffffff8021a920 g     F .text	0000000000000087 calloc
ffffffff8020c460 g     F .text	0000000000000066 pci_find_pci_class_code
ffffffff8020f5d0 g     F .text	00000000000001e2 port_create
ffffffff80200310 g     F .text	0000000000000026 unmask_interrupt
ffffffff80231248 g       apps	0000000000000000 .protected __stop_apps
ffffffff8020cab0  w    F .text	0000000000000006 pci_backend::find_pci_device(pci_location_t*, unsigned short, unsigned short, unsigned short)
ffffffff8020f3b0 g     F .text	0000000000000034 timer_init
ffffffff802331c0 g       .data	0000000000000000 _idt_end
ffffffff8020b720 g     F .text	000000000000003c class_i2c_read_reg
ffffffff80216360 g     F .text	00000000000000f3 pmm_free
ffffffff80212570 g     F .text	0000000000000014 bio_ioctl
ffffffff80231008 g     O commands	0000000000000018 _cmd_block_stringtests
ffffffff802012c0 g     F .text	0000000000000032 putc_xy
ffffffff802032e0 g     F .text	000000000000007e arch_mmu_query
ffffffff8020e140 g     F .text	0000000000000108 thread_secondary_cpu_init_early
ffffffff8021d000 g     F .text	0000000000000099 fprintf
ffffffff80223240 g     F .text	0000000000000044 io_write
ffffffff80200d80 g     F .text	00000000000000ee clear
ffffffff80222580 g     F .text	000000000000011e dlrealloc
ffffffff802141d0 g     F .text	0000000000000449 adler32
ffffffff8020b8e0 g     F .text	0000000000000034 class_fb_update_region
ffffffff8021df50 g     F .text	0000000000000033 strcat
ffffffff8020ed70 g     F .text	0000000000000157 thread_unblock_from_wait_queue
ffffffff802321a0 g     O .data	0000000000000008 _multiboot_info
ffffffff8021d150 g     F .text	0000000000000019 vprintf
ffffffff8020c310 g     F .text	00000000000000b8 pci_ecam::detect(unsigned long, unsigned short, unsigned char, unsigned char)
ffffffff802120a0 g     F .text	0000000000000088 bio_write
ffffffff80206fe0 g     F .text	00000000000000a9 fibo
ffffffff80200b50 g     F .text	0000000000000007 get_active_page
ffffffff8020de80 g     F .text	00000000000000d8 thread_sleep
ffffffff8020b9a0 g     F .text	0000000000000038 class_netif_get_mtu
ffffffff80230fe0 g     O drivers	0000000000000010 __driver_uart
ffffffff80200c10 g     F .text	0000000000000067 curr_restore
ffffffff8020e280 g     F .text	00000000000000fb dump_thread
ffffffff80219890 g     F .text	00000000000001b2 panic_shell_start
ffffffff8020fb60 g     F .text	00000000000000e7 port_group_add
ffffffff802008f0 g     F .text	0000000000000049 platform_init_debug
ffffffff8020dcd0 g     F .text	00000000000000a8 thread_block
ffffffff802228d0 g     F .text	000000000000001f dlindependent_calloc
ffffffff80205400 g     F .text	0000000000000086 app_start_by_name
ffffffff80233620 g     O .ctors	0000000000000008 _register_arch_mmu_tests_ptr
ffffffff8020a7c0 g     F .text	0000000000000a80 arch_mmu_tests
ffffffff80216060 g     F .text	000000000000006b vm_page_to_paddr
ffffffff80279001 g     O .bss	0000000000000001 g_vaddr_width
ffffffff80204d1d g     F .text	0000000000000000 setup_idt
ffffffff8021db50 g     F .text	0000000000000023 memchr
ffffffff80214000 g     F .text	00000000000000c8 cbuf_write_char
ffffffff80227bc8  w    O .rodata	0000000000000070 vtable for pci_type1
ffffffff80214a80 g     F .text	000000000000013d crc32
ffffffff802228f0 g     F .text	000000000000000a dlindependent_comalloc
ffffffff80217f80 g     F .text	000000000000019f vmm_free_aspace
ffffffff80206660 g     F .text	000000000000056a cbuf_tests
ffffffff8020d050 g     F .text	000000000000004c kernel_init
ffffffff80215bc0 g     F .text	0000000000000022 boot_alloc_mem
ffffffff8020f3f0 g     F .text	0000000000000024 sem_init
ffffffff8020f260 g     F .text	00000000000000b8 timer_set_periodic
ffffffff8027aae0 g     O .bss	0000000000000020 acpi
ffffffff80200480 g     F .text	000000000000011e platform_early_init
ffffffff80200000 g       .text	0000000000000000 _start
ffffffff80200bc0 g     F .text	0000000000000028 cursor
ffffffff8021e4c0 g     F .text	000000000000007d strstr
ffffffff8021c8e0 g     F .text	0000000000000016 rand
ffffffff8021e6d0 g     F .text	0000000000000012 __cxa_pure_virtual
ffffffff80224000 g       .rodata	0000000000000000 __rodata_start
ffffffff8027a4e0 g     O .bss	0000000000000008 thread_lock
ffffffff80217730 g     F .text	00000000000001a3 vmm_alloc_physical
ffffffff80231050 g     O commands	0000000000000018 _cmd_block_tests
ffffffff80200170 g     F .text	0000000000000049 target_init
ffffffff802035f0 g     F .text	000000000000001e arch_enter_uspace
ffffffff8021e140 g     F .text	0000000000000072 strlcpy
ffffffff8021dff0 g     F .text	0000000000000005 strcoll
ffffffff8021b1c0 g     F .text	000000000000000c isupper
ffffffff8020c5b0 g     F .text	0000000000000066 pci_read_config_word
ffffffff8021e2a0 g     F .text	0000000000000033 strncmp
ffffffff80217e10 g     F .text	0000000000000168 vmm_create_aspace
ffffffff8020c110 g     F .text	000000000000002b pci_ecam::read_config_half(pci_location_t const*, unsigned int, unsigned short*)
ffffffff8020b8a0 g     F .text	0000000000000034 class_fb_update
ffffffff80233638 g       .ctors	0000000000000000 __dtor_end
ffffffff80233638 g       .ctors	0000000000000000 __data_end
ffffffff80211bf0 g     F .text	0000000000000033 bio_trim_range
ffffffff80217090 g     F .text	0000000000000074 vaddr_to_paddr
ffffffff80214840 g     F .text	000000000000004e crc16
ffffffff8027a500 g     O .bss	0000000000000048 thread_stats
ffffffff802311b8 g     O commands	0000000000000018 _cmd_block_page_alloc
ffffffff8021e6b0 g     F .text	0000000000000005 operator delete(void*, unsigned long)
ffffffff8020c140 g     F .text	0000000000000029 pci_ecam::read_config_word(pci_location_t const*, unsigned int, unsigned int*)
ffffffff8021e240 g     F .text	0000000000000051 strncpy
ffffffff8021faa0 g     F .text	0000000000001b0e dlmalloc
ffffffff80231260 g     O lk_init	0000000000000018 _init_struct_vm
ffffffff8020d020 g     F .text	000000000000002c event_unsignal
ffffffff8020cb50  w    F .text	000000000000002c SpinLock::~SpinLock()
ffffffff8021a9b0 g     F .text	0000000000000087 realloc
ffffffff802311a0 g     O commands	0000000000000018 _cmd_block_heap
ffffffff8020b5e0 g     F .text	0000000000000038 class_block_read
ffffffff80219af0 g     F .text	00000000000000b4 panic
ffffffff8021db10 g     F .text	0000000000000003 __cxa_atexit
ffffffff80213a60 g     F .text	00000000000000b8 cbuf_initialize_etc
ffffffff802230c0 g     F .text	0000000000000034 dlmalloc_usable_size
ffffffff8020b560 g     F .text	0000000000000038 class_block_get_count
ffffffff802121e0 g     F .text	0000000000000078 bio_write_block
ffffffff8020b860 g     F .text	0000000000000034 class_fb_get_info
ffffffff8020b960 g     F .text	0000000000000038 class_netif_get_hwaddr
ffffffff80200fa0 g     F .text	0000000000000023 scroll
ffffffff8021db30 g     F .text	000000000000000e bcopy
ffffffff8021e540 g     F .text	00000000000000a4 strtok
ffffffff80202b70 g     F .text	0000000000000514 x86_mmu_add_mapping
ffffffff8020e910 g     F .text	00000000000001b8 wait_queue_wake_all
ffffffff8021db80 g     F .text	0000000000000033 memcmp
ffffffff8020e250 g     F .text	0000000000000027 thread_secondary_cpu_entry
ffffffff80204f60 g     F .text	000000000000017a lk_main
ffffffff8020e430 g     F .text	000000000000001a wait_queue_init
ffffffff80217200  w    F .text	000000000000000c arch_mmu_pick_spot
ffffffff80215b20  w    F .text	0000000000000001 platform_quiesce
ffffffff802195d0 g     F .text	000000000000008b console_run_script
ffffffff8021b1e0 g     F .text	000000000000000f isalpha
ffffffff8020d0a0 g     F .text	0000000000000030 mutex_init
ffffffff80203520 g     F .text	0000000000000003 arch_mmu_destroy_aspace
ffffffff8021e1f0 g     F .text	0000000000000047 strncat
ffffffff8020f160 g     F .text	000000000000002f timer_initialize
ffffffff8020f520 g     F .text	0000000000000027 sem_trywait
ffffffff80215ae0  w    F .text	0000000000000009 platform_pgetc
ffffffff8020dc00 g     F .text	00000000000000c8 thread_preempt
ffffffff80222870 g     F .text	0000000000000057 dlpvalloc
ffffffff80233638 g       .ctors	0000000000000000 __ctor_end
ffffffff80201520 g     F .text	0000000000000166 platform_init_keyboard
ffffffff8020ce80 g     F .text	0000000000000028 event_init
ffffffff8021e020 g     F .text	0000000000000047 strdup
ffffffff8020b2c0 g     F .text	00000000000000a1 device_init_all
ffffffff80275000 g     O .bss	0000000000001000 kernel_pdp_high
ffffffff802333a8 g     O .data	0000000000000008 boot_alloc_start
ffffffff8020b7a0 g     F .text	0000000000000038 class_uart_read
ffffffff80201500 g     F .text	000000000000001a platform_read_key
ffffffff80279000 g     O .bss	0000000000000001 g_paddr_width
ffffffff80211dc0 g     F .text	0000000000000078 bio_read_block
ffffffff802035d0 g     F .text	000000000000001e arch_chain_load
ffffffff8020c0e0 g     F .text	000000000000002a pci_ecam::read_config_byte(pci_location_t const*, unsigned int, unsigned char*)
ffffffff80234000 g       .bss	0000000000000000 __bss_start
ffffffff8020f190 g     F .text	00000000000000c8 timer_set_oneshot
ffffffff80219860 g     F .text	0000000000000024 console_get_command_handler
ffffffff8021dea0 g     F .text	00000000000000ab memset
ffffffff80213830 g     F .text	0000000000000229 bio_publish_subdevice
ffffffff80216460 g     F .text	0000000000000025 pmm_free_page
ffffffff8020c540 g     F .text	0000000000000066 pci_read_config_half
ffffffff80231140 g     O commands	0000000000000018 _cmd_block_pmm
ffffffff802321a8 g     O .data	0000000000000000 _idtr
ffffffff8020b480 g     F .text	000000000000004e device_suspend
ffffffff8021c8a0 g     F .text	0000000000000007 srand
ffffffff8021e5f0 g     F .text	0000000000000052 strxfrm
ffffffff80203710 g     F .text	0000000000000024 arch_context_switch
ffffffff8021e090 g     F .text	00000000000000a2 strlcat
ffffffff8020b520 g     F .text	0000000000000038 class_block_get_size
ffffffff8020da40 g     F .text	000000000000004a thread_set_real_time
ffffffff802007b0 g     F .text	0000000000000073 platform_set_oneshot_timer
ffffffff8020ceb0 g     F .text	0000000000000070 event_destroy
ffffffff80233630 g     O .ctors	0000000000000008 _register_unittest_ptr
ffffffff8021e6a0 g     F .text	0000000000000005 operator delete[](void*)
ffffffff8020c1d0 g     F .text	0000000000000023 pci_ecam::write_config_word(pci_location_t const*, unsigned int, unsigned int)
ffffffff80205370 g     F .text	0000000000000089 apps_init
ffffffff802232d4 g       .text	0000000000000000 __code_end
ffffffff80231158 g     O commands	0000000000000018 _cmd_block_vm
ffffffff8021cfb0 g     F .text	000000000000002f getchar
ffffffff8020cf20 g     F .text	0000000000000070 event_wait_timeout
ffffffff80216d30 g     F .text	000000000000004b paddr_to_kvaddr
ffffffff802003d0 g     F .text	0000000000000033 register_int_handler
ffffffff80213ee0 g     F .text	0000000000000118 cbuf_peek
ffffffff8021b240 g     F .text	000000000000000c isgraph
ffffffff8020f7c0 g     F .text	0000000000000214 port_open
ffffffff8020ba20 g     F .text	0000000000000034 class_netif_output
ffffffff8020c170 g     F .text	0000000000000023 pci_ecam::write_config_byte(pci_location_t const*, unsigned int, unsigned char)
ffffffff80216b90 g     F .text	0000000000000019 pmm_alloc_contiguous
ffffffff8020b6e0 g     F .text	000000000000003c class_i2c_write_reg
ffffffff8021ab60 g     F .text	000000000000002c page_free
ffffffff8021b1f0 g     F .text	0000000000000024 isalnum
ffffffff80203140 g     F .text	000000000000009c arch_mmu_unmap
ffffffff8027a2a0 g     O .bss	0000000000000020 lk_boot_args
ffffffff8021b270 g     F .text	000000000000000c isprint
ffffffff80233218 g     O .data	0000000000000000 _gdt_end
ffffffff80210fc0 g     F .text	0000000000000473 AES_encrypt
ffffffff80232060 g     O .data	0000000000000078 mmu_initial_mappings
ffffffff8027a088 g     O .bss	0000000000000008 _current_thread
ffffffff80211c60 g     F .text	0000000000000099 bio_open
ffffffff8020c270 g     F .text	000000000000002f pci_ecam::pci_ecam(unsigned long, unsigned short, unsigned char, unsigned char)
ffffffff802002e0 g     F .text	0000000000000026 mask_interrupt
ffffffff80219ac0 g     F .text	000000000000002a spin
ffffffff8021dfc0 g     F .text	0000000000000023 strcmp
ffffffff80279020 g     O .bss	0000000000001000 _kstack
ffffffff8020b9e0 g     F .text	000000000000003c class_netif_set_status
ffffffff80210480 g     F .text	00000000000000c1 acpi_get_table_by_sig
ffffffff8020fd00 g     F .text	000000000000022e port_write
ffffffff80203530 g     F .text	0000000000000024 arch_mmu_context_switch
ffffffff802311d0 g     O apps	0000000000000028 _app_shell
ffffffff80200430 g     F .text	0000000000000018 io_apic_callback
ffffffff8021e670 g     F .text	0000000000000005 operator new(unsigned long, std::nothrow_t const&)
ffffffff8020b3d0 g     F .text	00000000000000a1 device_fini_all
ffffffff8020cb00  w    F .text	0000000000000006 pci_backend::read_config_half(pci_location_t const*, unsigned int, unsigned short*)
ffffffff8021a890 g     F .text	0000000000000087 memalign
ffffffff8021c6c0 g     F .text	00000000000000ed sprintf
ffffffff80215b90  w    F .text	0000000000000001 target_early_init
ffffffff8020cb10  w    F .text	0000000000000006 pci_backend::read_config_word(pci_location_t const*, unsigned int, unsigned int*)
ffffffff80214bc0 g     F .text	0000000000000005 crc32_combine
ffffffff8020c3f0 g     F .text	000000000000006e pci_find_pci_device
ffffffff80216d10 g     F .text	0000000000000012 kvaddr_get_range
ffffffff8021ac00 g     F .text	0000000000000003 atexit
ffffffff8020c980 g     F .text	0000000000000055 pci_type1::read_config_byte(pci_location_t const*, unsigned int, unsigned char*)
ffffffff80219660 g     F .text	000000000000008b console_run_script_locked
ffffffff8021bb40 g     F .text	0000000000000aaf _printf_engine
ffffffff8027ab20 g     O .bss	0000000000000058 _kernel_aspace
ffffffff8021ae30 g     F .text	000000000000000b atoui
ffffffff80231128 g     O commands	0000000000000018 _cmd_block_platform_power
ffffffff802231e0 g     F .text	0000000000000022 register_print_callback
ffffffff80210830 g     F .text	000000000000007a acpi_process_madt_entries_etc
ffffffff802334b0 g     O .data	0000000000000010 delayed_free_list
ffffffff8020da90 g     F .text	0000000000000098 thread_yield
ffffffff80201300 g     F .text	00000000000000fd printf_xy
ffffffff80200750 g     F .text	000000000000005e platform_init_timer
ffffffff80223290 g     F .text	0000000000000044 io_read
ffffffff80203560 g     F .text	0000000000000060 arch_early_init
ffffffff802009b0 g     F .text	0000000000000019 platform_dgetc
ffffffff80219c90 g     F .text	0000000000000008 get_panic_fd
ffffffff8020b920 g     F .text	0000000000000034 class_netif_set_state
ffffffff80222a20 g     F .text	000000000000016f dlmalloc_inspect_all
ffffffff80203360 g     F .text	00000000000000c8 arch_mmu_map
ffffffff8021e2e0 g     F .text	00000000000000c4 strnicmp
ffffffff8021ce40 g     F .text	0000000000000022 fputc
ffffffff8020c1a0 g     F .text	0000000000000024 pci_ecam::write_config_half(pci_location_t const*, unsigned int, unsigned short)
ffffffff8020c620 g     F .text	0000000000000066 pci_write_config_byte
ffffffff8021e660 g     F .text	0000000000000005 operator new[](unsigned long)
ffffffff8020e380 g     F .text	0000000000000077 dump_all_threads_unlocked
ffffffff80200b60 g     F .text	0000000000000052 place
ffffffff8020cbb0  w    F .text	000000000000000a pci_type1::~pci_type1()
ffffffff80231038 g     O commands	0000000000000018 _cmd_block_mem_tests
ffffffff80203500 g     F .text	0000000000000001 x86_mmu_init
ffffffff80231220 g     O apps	0000000000000028 _app_tests
ffffffff80215900 g     F .text	0000000000000117 run_all_tests
ffffffff80219bb0 g     F .text	00000000000000af assert_fail_msg
ffffffff802006f0 g     F .text	000000000000002d platform_set_periodic_timer
ffffffff80222c60 g     F .text	0000000000000022 dlmalloc_set_footprint_limit
ffffffff80222780 g     F .text	000000000000009a dlposix_memalign
ffffffff80233638 g       .ctors	0000000000000000 __dtor_list
ffffffff8020b820 g     F .text	0000000000000034 class_fb_set_mode
ffffffff8021b1d0 g     F .text	000000000000000c isdigit
ffffffff80222c90 g     F .text	00000000000001c4 dlmallinfo
ffffffff80222760 g     F .text	0000000000000018 dlmemalign
ffffffff8021cf20 g     F .text	0000000000000052 fwrite
ffffffff8021a7f0 g     F .text	0000000000000029 heap_trim
ffffffff8027afd0 g       .bss	0000000000000000 _end
ffffffff80210760 g     F .text	00000000000000c1 acpi_lite_dump_tables
ffffffff80201240 g     F .text	0000000000000028 cputs
ffffffff802035c0 g     F .text	000000000000000f arch_init
ffffffff80215890 g     F .text	000000000000000f unittest_set_output_function
ffffffff80212510 g     F .text	000000000000005c bio_erase
ffffffff80276000 g     O .bss	0000000000001000 kernel_pte
ffffffff80214620 g     F .text	00000000000000e4 adler32_combine
ffffffff802310f8 g     O commands	0000000000000018 _cmd_block_name
ffffffff8020b760 g     F .text	0000000000000038 class_spi_transaction
ffffffff80231080 g     O commands	0000000000000018 _cmd_block_kernel
ffffffff80214710 g     F .text	00000000000000e4 adler32_combine64
ffffffff8027aa80 g     O .bss	0000000000000008 timer_lock
ffffffff80211d00 g     F .text	000000000000002c bio_close
ffffffff8021e680 g     F .text	0000000000000005 operator new[](unsigned long, std::nothrow_t const&)
ffffffff80231248 g     O lk_init	0000000000000018 _init_struct_version
ffffffff80223210 g     F .text	0000000000000023 unregister_print_callback
ffffffff802335c0 g     O devices	0000000000000030 __device_ide_ide1
ffffffff80212590 g     F .text	0000000000000148 bio_initialize_bdev
ffffffff80219c60 g     F .text	0000000000000026 assert_fail
ffffffff8022f320 g     O .rodata	0000000000000030 lk_version
ffffffff80200af0 g     F .text	0000000000000047 set_active_page
ffffffff8020cb20  w    F .text	0000000000000006 pci_backend::write_config_byte(pci_location_t const*, unsigned int, unsigned char)
ffffffff8020d180 g     F .text	00000000000000bd mutex_acquire_timeout
ffffffff80225268 g     O .rodata	0000000000000008 BUFSIZE
ffffffff80215740 g     F .text	00000000000000cd unittest
ffffffff8020c200 g     F .text	0000000000000021 pci_ecam::~pci_ecam()
ffffffff802096c0 g     F .text	0000000000000eb9 port_tests
ffffffff80203510 g     F .text	000000000000000c arch_mmu_init_aspace
ffffffff80231098 g     O commands	0000000000000018 _cmd_block_aes_test
ffffffff8021ad30 g     F .text	000000000000000b atoi
ffffffff8021b250 g     F .text	0000000000000012 iscntrl
ffffffff80227b20  w    O .rodata	0000000000000070 vtable for pci_ecam
ffffffff8020cae0  w    F .text	0000000000000006 pci_backend::set_irq_hw_int(pci_location_t const*, unsigned char, unsigned char)
ffffffff80200c80 g     F .text	0000000000000019 window
ffffffff802311f8 g     O apps	0000000000000028 _app_stringtests
ffffffff80219490 g     F .text	0000000000000019 console_set_current
ffffffff8021aa90 g     F .text	000000000000002d heap_delayed_free
ffffffff8021ab90 g     F .text	0000000000000023 page_get_arenas
ffffffff802310b0 g     O commands	0000000000000018 _cmd_block_bio
ffffffff8021e470 g     F .text	0000000000000049 strspn
ffffffff8021a7e0 g     F .text	0000000000000001 heap_init
ffffffff8020b660 g     F .text	000000000000003c class_i2c_write
ffffffff8020c4d0 g     F .text	0000000000000066 pci_read_config_byte
ffffffff8021e1c0 g     F .text	0000000000000021 strlen
ffffffff8020b7e0 g     F .text	0000000000000038 class_uart_write
ffffffff8021b2c0 g     F .text	000000000000000f toupper
ffffffff80215a40 g     F .text	000000000000007c print_version
ffffffff80230ff0 g     O commands	0000000000000018 _cmd_block_app
ffffffff802009d0 g     F .text	0000000000000004 platform_halt
ffffffff802178e0 g     F .text	00000000000001c2 vmm_alloc_contiguous
ffffffff80221b50 g     F .text	00000000000009bb dlfree
ffffffff80222e60 g     F .text	000000000000019d dlmalloc_stats
ffffffff8020d0d0 g     F .text	00000000000000ab mutex_destroy
ffffffff80200940 g     F .text	0000000000000062 platform_dputc
ffffffff8021df90 g     F .text	000000000000002c strchr
ffffffff8020ba60 g     F .text	0000000000000034 class_netif_mcast_filter
ffffffff80200ca0 g     F .text	00000000000000de _clear
ffffffff8020cac0  w    F .text	0000000000000006 pci_backend::find_pci_class_code(pci_location_t*, unsigned int, unsigned short)
ffffffff8020da10 g     F .text	0000000000000028 thread_create
ffffffff8021cef0 g     F .text	0000000000000025 fputs
ffffffff8020c700 g     F .text	0000000000000065 pci_write_config_word
ffffffff80232000 g       .data	0000000000000000 __data_start
ffffffff802311d0 g       commands	0000000000000000 .protected __stop_commands
ffffffff802226a0 g     F .text	00000000000000bb dlrealloc_in_place
ffffffff8020b620 g     F .text	0000000000000034 class_block_flush
ffffffff8020c880 g     F .text	0000000000000077 pci_init_legacy
ffffffff802332d8 g     O .data	0000000000000008 context1
ffffffff80200730 g     F .text	0000000000000017 current_time_hires
ffffffff80200340 g     F .text	0000000000000088 platform_irq
ffffffff8020d240 g     F .text	00000000000000c2 mutex_release
ffffffff80211c30 g     F .text	0000000000000023 bio_trim_block_range
ffffffff802136d0 g     F .text	0000000000000087 create_membdev
ffffffff80216340 g     F .text	0000000000000015 pmm_alloc_range
ffffffff80216130 g     F .text	0000000000000178 pmm_add_arena
ffffffff8021e6c0 g     F .text	0000000000000005 operator delete[](void*, unsigned long)
ffffffff80214bd0 g     F .text	0000000000000005 crc32_combine64
ffffffff8021db20 g     F .text	0000000000000003 __aeabi_atexit
ffffffff80203430 g     F .text	00000000000000c9 x86_mmu_early_init
ffffffff80231020 g     O commands	0000000000000018 _cmd_block_float_tests
ffffffff8020e5b0 g     F .text	0000000000000200 thread_join
ffffffff80222900 g     F .text	000000000000011c dlbulk_free
ffffffff8020e080 g     F .text	000000000000005f thread_set_priority
ffffffff8020c9e0 g     F .text	0000000000000044 pci_type1::read_config_word(pci_location_t const*, unsigned int, unsigned int*)
ffffffff80217150 g     F .text	000000000000009c vmm_init_preheap
ffffffff80211440 g     F .text	0000000000000473 AES_decrypt
ffffffff8020c2a0 g     F .text	0000000000000066 pci_ecam::initialize()
ffffffff8021cfe0 g     F .text	0000000000000015 vfprintf
ffffffff8020fc50 g     F .text	00000000000000ac port_group_remove
ffffffff8021e3f0 g     F .text	000000000000004c strpbrk
ffffffff8021db00 g     F .text	0000000000000001 raise
ffffffff8021aa40 g     F .text	000000000000004a free
ffffffff8020c3d0 g     F .text	0000000000000016 pci_get_last_bus
ffffffff802009e0 g     F .text	00000000000000cf platform_init_console
ffffffff802311d0 g       apps	0000000000000000 .protected __start_apps


